VAR · MacroEconometricModels.jl
…
  Specification

  Variables                   3
  Lags                       13
  Observations (effective)   47
  Parameters per equation    40

┌ Warning: Matrix near-singular (1-norm cond ≈ 2.8597039257582015e8). Using pseudo-inverse.
└ @ MacroEconometricModels /private/tmp/claude-501/-Users-chung-Desktop-CODES-MacroEconometricModels/fb5e1c34-c7c0-4ff3-ae48-b27b3e01e618/scratchpad/wt-v0.6.4/src/core/utils.jl:130
                    Equation Summary

  Equation   Parms     RMSE       R²   Adj. R²   F-stat

  y1            40   0.0014   0.9273    0.5223     2.29
  y2            40    0.001   0.9009    0.3486    1.631
  y3            40   0.0434   0.9577    0.7218     4.06

                               Equation: y1

            Coef.   Std.Err.         t    P>|t|      [95%       CI]

  const    0.0014     0.0003    3.9161   0.0058    0.0005    0.0022   ***
  y1.L1     0.095     0.0791    1.2014   0.2687    -0.092    0.2821
  y2.L1    1.5638     0.2054    7.6149   <0.001    1.0782    2.0494   ***
  y3.L1    -0.011     0.0042   -2.6133   0.0347   -0.0209    -0.001   **
  y1.L2   -0.1438     0.0747   -1.9232   0.0959   -0.3205     0.033   *
  y2.L2    0.3556     0.2646    1.3439   0.2209   -0.2701    0.9812
  y3.L2    0.0445     0.0058    7.6617   <0.001    0.0307    0.0582   ***
  y1.L3   -0.1363     0.0728   -1.8734   0.1032   -0.3084    0.0357
  y2.L3    1.5104     0.3168    4.7674    0.002    0.7613    2.2596   ***
  y3.L3   -0.0455     0.0067   -6.8261   <0.001   -0.0612   -0.0297   ***
  y1.L4   -0.0014     0.0773   -0.0184   0.9858   -0.1842    0.1814
  y2.L4   -0.9749     0.2685   -3.6307   0.0084   -1.6099     -0.34   ***
  y3.L4    0.0333     0.0069      4.84   0.0019     0.017    0.0496   ***
  y1.L5   -0.5222     0.0703   -7.4261   <0.001   -0.6885   -0.3559   ***
  y2.L5    0.7349     0.2261    3.2498   0.0141    0.2002    1.2696   **
  ⋮             ⋮          ⋮         ⋮        ⋮         ⋮         ⋮   ⋮

                                                            25 rows omitted
…
  Specification

  Variables                   3
  Lags                       13
  Observations (effective)   47
  Parameters per equation    40

┌ Warning: Matrix near-singular (1-norm cond ≈ 2.8597039257582015e8). Using pseudo-inverse.
└ @ MacroEconometricModels /private/tmp/claude-501/-Users-chung-Desktop-CODES-MacroEconometricModels/fb5e1c34-c7c0-4ff3-ae48-b27b3e01e618/scratchpad/wt-v0.6.4/src/core/utils.jl:130
                    Equation Summary

  Equation   Parms     RMSE       R²   Adj. R²   F-stat

  y1            40   0.0014   0.9273    0.5223     2.29
  y2            40    0.001   0.9009    0.3486    1.631
  y3            40   0.0434   0.9577    0.7218     4.06

                               Equation: y1

            Coef.   Std.Err.         t    P>|t|      [95%       CI]

  const    0.0014     0.0003    3.9161   0.0058    0.0005    0.0022   ***
  y1.L1     0.095     0.0791    1.2014   0.2687    -0.092    0.2821
  y2.L1    1.5638     0.2054    7.6149   <0.001    1.0782    2.0494   ***
  y3.L1    -0.011     0.0042   -2.6133   0.0347   -0.0209    -0.001   **
  y1.L2   -0.1438     0.0747   -1.9232   0.0959   -0.3205     0.033   *
  y2.L2    0.3556     0.2646    1.3439   0.2209   -0.2701    0.9812
  y3.L2    0.0445     0.0058    7.6617   <0.001    0.0307    0.0582   ***
  y1.L3   -0.1363     0.0728   -1.8734   0.1032   -0.3084    0.0357
  y2.L3    1.5104     0.3168    4.7674    0.002    0.7613    2.2596   ***
  y3.L3   -0.0455     0.0067   -6.8261   <0.001   -0.0612   -0.0297   ***
  y1.L4   -0.0014     0.0773   -0.0184   0.9858   -0.1842    0.1814
  y2.L4   -0.9749     0.2685   -3.6307   0.0084   -1.6099     -0.34   ***
  y3.L4    0.0333     0.0069      4.84   0.0019     0.017    0.0496   ***
  y1.L5   -0.5222     0.0703   -7.4261   <0.001   -0.6885   -0.3559   ***
  y2.L5    0.7349     0.2261    3.2498   0.0141    0.2002    1.2696   **
  ⋮             ⋮          ⋮         ⋮        ⋮         ⋮         ⋮   ⋮

                                                            25 rows omitted
…
